[
  {
    "id": 1,
    "img": "../img/JU-88.jpg",
    "name": "JU-88",
    "price": "670",
    "article": "2105",
    "color": "dark-green"
  },
  {
    "id": 2,
    "img": "../img/F-18.webp",
    "name": "F-18 Super Hornet",
    "price": "470",
    "article": "3107",
    "color": "silver"
  },
  {
    "id": 3,
    "img": "../img/F-14.webp",
    "name": "F-14 Tomcat",
    "price": "780",
    "article": "0408",
    "color": "dark-silver"
  },
  {
    "id": 4,
    "img": "../img/F-35.webp",
    "name": "F-35 Lightning II",
    "price": "1350",
    "article": "0206",
    "color": "dark-blue"
  },
  {
    "id": 5,
    "img": "../img/EF-2000.jpg",
    "name": "EF-2000A Eurofighter 'Typhoon'",
    "price": "1055",
    "article": "1708",
    "color": "light-silver"
  },
  {
    "id": 6,
    "img": "../img/F-51.jpg",
    "name": "F-51D Mustang",
    "price": "565",
    "article": "1504",
    "color": "sky blue"
  },
  {
    "id": 7,
    "img": "../img/F-117.jpg",
    "name": "F-117A Nighthawk",
    "price": "945",
    "article": "2012",
    "color": "light-dark"
  },
  {
    "id": 8,
    "img": "../img/B-2.jpg",
    "name": "B-2 Spirit",
    "price": "1560",
    "article": "1204",
    "color": "light-dark"
  },
  {
    "id": 9,
    "img": "../img/F-22.jpg",
    "name": "F-22 Raptor",
    "price": "720",
    "article": "0603",
    "color": "olive"
  },
  {
    "id": 10,
    "img": "../img/F-16.jpg",
    "name": "F-16",
    "price": "565",
    "article": "1804",
    "color": "dark-olive"
  }
]